﻿Dell Alienware 15 r3
65.990.000đ
CPU: 
7th Generation Intel® Core™ i7-7700HQ (Quad-Core, 6MB Cache, up to 3.8GHz w/ Turbo Boost)
RAM: 
16GB DDR4 2400MHz
Đĩa cứng: 
256GB M.2 SATA 6Gb/s SSD (Boot) + 1TB 7200RPM SATA 6Gb/s (Storage)
Màn hình: 
15.6 inch UHD (3840 x 2160) IGZO IPS Anti-Glare 300-nits Display
Card đồ họa: 
NVIDIA® GeForce® GTX 1070 with 8GB GDDR5
Thông tin Pin: 
Lithium Ion (99 Wh) Battery