﻿Dell Precision 7510 (4K IGZO)
78.000.000đ
CPU:
Intel Xeon E3-1535M v5
VGA:
NVIDIA Quadro M2000M
RAM:
32gb
Màn hình:
15.6 inch 16:9, 3840x2160 pixel 282 PPI
Ổ cứng:
Samsung SSD SM951a 512GB M.2 PCIe 3.0 x4 NVMe (MZVKV512)
Trọng lượng:
2.74 kg 
