﻿MSI GT75VR 7RF Titan Pro (i7-7820HK, GTX 1080)
98.000.000đ
CPU:
Intel Core i7-7820HK 
VGA:
NVIDIA GeForce GTX 1080 (Laptop) - 8192 MB
RAM
32gb 2x 16 GB DDR4-2400
Display
17.3 inch 16:9, 1920x1080
Storage
2x ssd 512gb,  1 hdd 1tb
Weight
4.6 kg
