﻿Dell Vostro 15 5568 (Core i5-7200U, Full-HD, 2017)
17.000.000đ
CPU:
Intel Core i5-7200U
VGA:
NVIDIA Geforce 940M (2GB)
RAM: 
8GB DDR4-2133
Display
15.6 inch 16:9, 1920x1080 
Storage
SanDisk X400 256GB, SATA (SD8SB8U-256G), 256 GB  
Weight
1.872 kg