﻿HP Spectre 13-v131ng
38.000.000đ
CPU:
Intel Core i7-7500U (Intel Core i7)
VGA:
Intel HD Graphics 620, 21.20.16.4574
RAM:
8gb LPDDR3-1866SDRAM
Display
13.3 inch 16:9, 1920x1080 pixel 166 PPI
Storage
Samsung PM961 NVMe MZVLW512HMJP, 512 GB  
Weight
1.113 kg 