Macbook Pro 13 inch 128GB (2017)
33.999.000₫
Màn Hình :
13.3 inch	LED-backlit
CPU :
Intel, Core i5, 2.3 GHz
Ram :
8 GB, LPDDR3, 2133MHz
VGA :
Intel Iris Plus Graphics 640
HĐH :
Mac Os
Nặng :
1.37 kg