Dell Ins 7460/ i7-7500U
23.990.000₫
Màn Hình :
14 inchFHD IPS LED Backlight
CPU :
Intel, Core i7, 2.70 GHz
Ram :
8 GB, DDR4, 2133 MHz
VGA :
NVIDIA GeForce 940MX 2 GB
HĐH :
Windows 10
Nặng :
1.8 Kg