﻿Apple MacBook Pro 15 2016
62.000.000đ
CPU:
Intel Core i7-6820HQ (Intel Core i7)
VGA:
AMD Radeon Pro 455
RAM:
16gb 2133 MHz LPDDR3 RAM soldered
Màn hình:
15.4 inch 16:10, 2880x1800 pixel 220 PPI, APPA031, IPS, glossy: yes
Storage:
Apple SSD SM0512L, 512 GB  
Weight:
1.83 kg