Macbook Pro 15 inch Touch Bar 256GB (2017)
45.000.000đ
Màn Hình : 15.4 inch LED-backlit
CPU : Intel, Core i7, 2.8 GHz
Ram : 8 GB, LPDDR3, 2133MHz
VGA : Radeon Pro 555
HĐH : Mac Os
Nặng : 1.83 kg